<svg width="107" height="100" viewBox="0 0 107 100" fill="none" xmlns="http://www.w3.org/2000/svg">
<path d="M15.8427 46.875C18.3657 46.875 20.6492 45.9267 22.3366 44.4038L31.5938 48.7396C31.5473 49.0929 31.4789 49.44 31.4789 49.8047C31.4789 54.6509 35.6877 58.5938 40.8607 58.5938C46.0337 58.5938 50.2424 54.6509 50.2424 49.8047C50.2424 48.452 49.8873 47.1855 49.3018 46.0396L61.8597 34.2751C63.0829 34.8236 64.4347 35.1562 65.8787 35.1562C71.0516 35.1562 75.2604 31.2134 75.2604 26.3672C75.2604 25.4547 75.069 24.5918 74.7921 23.764L85.7033 16.0995C87.192 17.0311 88.9763 17.5781 90.8966 17.5781C96.0696 17.5781 100.278 13.6353 100.278 8.78906C100.278 3.94287 96.0696 0 90.8966 0C85.7237 0 81.5149 3.94287 81.5149 8.78906C81.5149 9.70154 81.7063 10.5644 81.9832 11.3922L71.072 19.0567C69.5833 18.1252 67.799 17.5781 65.8787 17.5781C60.7057 17.5781 56.4969 21.521 56.4969 26.3672C56.4969 27.7199 56.852 28.9864 57.4375 30.1323L44.8797 41.8968C43.6565 41.3483 42.3046 41.0156 40.8607 41.0156C38.3377 41.0156 36.0542 41.964 34.3667 43.4868L25.1096 39.151C25.156 38.7978 25.2244 38.4506 25.2244 38.0859C25.2244 33.2397 21.0157 29.2969 15.8427 29.2969C10.6697 29.2969 6.46094 33.2397 6.46094 38.0859C6.46094 42.9321 10.6697 46.875 15.8427 46.875V46.875Z" fill="white"/>
<path d="M103.616 94.1406H100.28V32.2266C100.28 30.6076 98.8813 29.2969 97.1532 29.2969H84.6442C82.9161 29.2969 81.5169 30.6076 81.5169 32.2266V94.1406H75.2624V49.8047C75.2624 48.1857 73.8633 46.875 72.1352 46.875H59.6262C57.8981 46.875 56.499 48.1857 56.499 49.8047V94.1406H50.2445V73.2422C50.2445 71.6232 48.8453 70.3125 47.1172 70.3125H34.6082C32.8801 70.3125 31.481 71.6232 31.481 73.2422V94.1406H25.2265V61.5234C25.2265 59.9045 23.8274 58.5937 22.0992 58.5937H9.59023C7.8621 58.5937 6.46298 59.9045 6.46298 61.5234V94.1406H3.12725C1.39912 94.1406 0 95.4514 0 97.0703C0 98.6893 1.39912 100 3.12725 100H103.616C105.344 100 106.743 98.6893 106.743 97.0703C106.743 95.4514 105.344 94.1406 103.616 94.1406Z" fill="white"/>
</svg>
